%TF.GenerationSoftware,KiCad,Pcbnew,8.0.1*%
%TF.CreationDate,2024-10-03T15:43:05+01:00*%
%TF.ProjectId,EOS,454f532e-6b69-4636-9164-5f7063625858,rev?*%
%TF.SameCoordinates,Original*%
%TF.FileFunction,Soldermask,Top*%
%TF.FilePolarity,Negative*%
%FSLAX46Y46*%
G04 Gerber Fmt 4.6, Leading zero omitted, Abs format (unit mm)*
G04 Created by KiCad (PCBNEW 8.0.1) date 2024-10-03 15:43:05*
%MOMM*%
%LPD*%
G01*
G04 APERTURE LIST*
G04 Aperture macros list*
%AMRoundRect*
0 Rectangle with rounded corners*
0 $1 Rounding radius*
0 $2 $3 $4 $5 $6 $7 $8 $9 X,Y pos of 4 corners*
0 Add a 4 corners polygon primitive as box body*
4,1,4,$2,$3,$4,$5,$6,$7,$8,$9,$2,$3,0*
0 Add four circle primitives for the rounded corners*
1,1,$1+$1,$2,$3*
1,1,$1+$1,$4,$5*
1,1,$1+$1,$6,$7*
1,1,$1+$1,$8,$9*
0 Add four rect primitives between the rounded corners*
20,1,$1+$1,$2,$3,$4,$5,0*
20,1,$1+$1,$4,$5,$6,$7,0*
20,1,$1+$1,$6,$7,$8,$9,0*
20,1,$1+$1,$8,$9,$2,$3,0*%
G04 Aperture macros list end*
%ADD10C,3.302000*%
%ADD11C,2.362200*%
%ADD12C,5.600000*%
%ADD13C,1.000000*%
%ADD14C,0.954000*%
%ADD15O,1.612000X3.020000*%
%ADD16O,1.412000X2.620000*%
%ADD17C,3.050000*%
%ADD18RoundRect,0.076200X1.387500X1.387500X-1.387500X1.387500X-1.387500X-1.387500X1.387500X-1.387500X0*%
%ADD19C,2.927400*%
%ADD20RoundRect,0.650000X-0.650000X0.650000X-0.650000X-0.650000X0.650000X-0.650000X0.650000X0.650000X0*%
%ADD21C,2.600000*%
%ADD22R,0.100000X1.524000*%
%ADD23R,7.500000X1.524000*%
%ADD24R,3.000000X1.524000*%
%ADD25R,6.000000X1.524000*%
%ADD26R,0.500000X1.524000*%
%ADD27R,7.000000X1.524000*%
%ADD28R,8.500000X1.524000*%
%ADD29RoundRect,0.100000X-0.100000X0.217500X-0.100000X-0.217500X0.100000X-0.217500X0.100000X0.217500X0*%
G04 APERTURE END LIST*
D10*
%TO.C,J13*%
X39500000Y-104000000D03*
X39500000Y-117200005D03*
D11*
X43699999Y-112700002D03*
X49199998Y-112700002D03*
X43699999Y-108500004D03*
X49199998Y-108500004D03*
%TD*%
D12*
%TO.C,H8*%
X85519448Y-83119299D03*
%TD*%
%TO.C,H1*%
X241519448Y-49219299D03*
%TD*%
D13*
%TO.C,J2*%
X141420000Y-150893388D03*
X150920000Y-150893388D03*
D14*
X143470000Y-155043388D03*
X143470000Y-151693388D03*
X143920000Y-154243388D03*
X143920000Y-150893388D03*
X144820000Y-154243388D03*
X144820000Y-150893388D03*
X145270000Y-155043388D03*
X145270000Y-151693388D03*
X145720000Y-154243388D03*
X145720000Y-150893388D03*
X146620000Y-154243388D03*
X146620000Y-150893388D03*
X147070000Y-155043388D03*
X147070000Y-151693388D03*
X147520000Y-154243388D03*
X147520000Y-150893388D03*
X148420000Y-154243388D03*
X148420000Y-150893388D03*
X148870000Y-155043388D03*
X148870000Y-151693388D03*
D15*
X140670000Y-154043388D03*
D16*
X140970000Y-159543388D03*
X151370000Y-159543388D03*
D15*
X151670000Y-154043388D03*
%TD*%
D17*
%TO.C,J7*%
X84066610Y-26488750D03*
X75666610Y-26488750D03*
D18*
X75666610Y-33788750D03*
D19*
X79866610Y-33788750D03*
X84066610Y-33788750D03*
X75666610Y-39288750D03*
X79866610Y-39288750D03*
X84066610Y-39288750D03*
%TD*%
D12*
%TO.C,H3*%
X42000000Y-29000000D03*
%TD*%
D13*
%TO.C,J10*%
X181496610Y-150913388D03*
X190996610Y-150913388D03*
D14*
X183546610Y-155063388D03*
X183546610Y-151713388D03*
X183996610Y-154263388D03*
X183996610Y-150913388D03*
X184896610Y-154263388D03*
X184896610Y-150913388D03*
X185346610Y-155063388D03*
X185346610Y-151713388D03*
X185796610Y-154263388D03*
X185796610Y-150913388D03*
X186696610Y-154263388D03*
X186696610Y-150913388D03*
X187146610Y-155063388D03*
X187146610Y-151713388D03*
X187596610Y-154263388D03*
X187596610Y-150913388D03*
X188496610Y-154263388D03*
X188496610Y-150913388D03*
X188946610Y-155063388D03*
X188946610Y-151713388D03*
D15*
X180746610Y-154063388D03*
D16*
X181046610Y-159563388D03*
X191446610Y-159563388D03*
D15*
X191746610Y-154063388D03*
%TD*%
D20*
%TO.C,TP1*%
X56000000Y-108204111D03*
D21*
X56000000Y-113284111D03*
%TD*%
D17*
%TO.C,J4*%
X108146610Y-26468750D03*
X99746610Y-26468750D03*
D18*
X99746610Y-33768750D03*
D19*
X103946610Y-33768750D03*
X108146610Y-33768750D03*
X99746610Y-39268750D03*
X103946610Y-39268750D03*
X108146610Y-39268750D03*
%TD*%
D12*
%TO.C,H2*%
X241519448Y-87119299D03*
%TD*%
D13*
%TO.C,J5*%
X72140000Y-150893388D03*
X81640000Y-150893388D03*
D14*
X74190000Y-155043388D03*
X74190000Y-151693388D03*
X74640000Y-154243388D03*
X74640000Y-150893388D03*
X75540000Y-154243388D03*
X75540000Y-150893388D03*
X75990000Y-155043388D03*
X75990000Y-151693388D03*
X76440000Y-154243388D03*
X76440000Y-150893388D03*
X77340000Y-154243388D03*
X77340000Y-150893388D03*
X77790000Y-155043388D03*
X77790000Y-151693388D03*
X78240000Y-154243388D03*
X78240000Y-150893388D03*
X79140000Y-154243388D03*
X79140000Y-150893388D03*
X79590000Y-155043388D03*
X79590000Y-151693388D03*
D15*
X71390000Y-154043388D03*
D16*
X71690000Y-159543388D03*
X82090000Y-159543388D03*
D15*
X82390000Y-154043388D03*
%TD*%
D12*
%TO.C,H6*%
X249000000Y-157559908D03*
%TD*%
D22*
%TO.C,U1*%
X95124448Y-94509299D03*
X94824448Y-94509299D03*
X95724448Y-94509299D03*
X95424448Y-94509299D03*
X75819448Y-94509299D03*
X75219448Y-94509299D03*
X76419448Y-94509299D03*
X76119448Y-94509299D03*
X96924448Y-94509299D03*
X147079448Y-94509299D03*
X145479448Y-94509299D03*
X137979448Y-94509299D03*
X97524448Y-94509299D03*
X146479448Y-94509299D03*
X146079448Y-94509299D03*
X138579448Y-94509299D03*
X96324448Y-94509299D03*
X96024448Y-94509299D03*
X147679448Y-94509299D03*
X147979448Y-94509299D03*
X144879448Y-94509299D03*
X144579448Y-94509299D03*
X96624448Y-94509299D03*
X147379448Y-94509299D03*
X145179448Y-94509299D03*
X137379448Y-94509299D03*
X137679448Y-94509299D03*
X137079448Y-94509299D03*
X97224448Y-94509299D03*
X146779448Y-94509299D03*
X145779448Y-94499299D03*
X138279448Y-94509299D03*
D23*
X80769448Y-94509299D03*
D24*
X99766448Y-94509299D03*
D25*
X128104448Y-94509299D03*
D26*
X139079448Y-94509299D03*
X148479448Y-94509299D03*
D27*
X158654448Y-94509299D03*
D22*
X74919448Y-94509299D03*
D28*
X90049448Y-94509299D03*
D22*
X71719448Y-94509299D03*
X68919448Y-94509299D03*
X65919448Y-94509299D03*
X62919448Y-94509299D03*
X74319448Y-94509299D03*
X132379448Y-94509299D03*
X132079448Y-94509299D03*
X132979448Y-94509299D03*
X132679448Y-94509299D03*
X133579448Y-94509299D03*
X133279448Y-94509299D03*
X134179448Y-94509299D03*
X133879448Y-94509299D03*
X134779448Y-94509299D03*
X134479448Y-94509299D03*
X135379448Y-94509299D03*
X135079448Y-94509299D03*
X135979448Y-94509299D03*
X135979448Y-94509299D03*
X135679448Y-94509299D03*
X136579448Y-94509299D03*
X136279448Y-94509299D03*
X141079448Y-94509299D03*
X139879448Y-94509299D03*
X140779448Y-94509299D03*
X139579448Y-94509299D03*
X140479448Y-94509299D03*
X141679448Y-94509299D03*
X140179448Y-94509299D03*
X141379448Y-94509299D03*
X75519448Y-94509299D03*
X142279448Y-94509299D03*
X141979448Y-94509299D03*
X142879448Y-94509299D03*
X142579448Y-94509299D03*
X143479448Y-94509299D03*
X143179448Y-94509299D03*
X144079448Y-94509299D03*
X143779448Y-94509299D03*
X149279448Y-94509299D03*
X148979448Y-94509299D03*
X149879448Y-94509299D03*
X149579448Y-94509299D03*
X151679448Y-94509299D03*
X150479448Y-94509299D03*
X151379448Y-94509299D03*
X150179448Y-94509299D03*
X152279448Y-94509299D03*
X151079448Y-94509299D03*
X151979448Y-94509299D03*
X150779448Y-94509299D03*
X152879448Y-94509299D03*
X152579448Y-94509299D03*
X153479448Y-94509299D03*
X153179448Y-94509299D03*
X154079448Y-94509299D03*
X153779448Y-94509299D03*
X154679448Y-94509299D03*
X154379448Y-94509299D03*
%TD*%
D13*
%TO.C,J1*%
X161846610Y-150913388D03*
X171346610Y-150913388D03*
D14*
X163896610Y-155063388D03*
X163896610Y-151713388D03*
X164346610Y-154263388D03*
X164346610Y-150913388D03*
X165246610Y-154263388D03*
X165246610Y-150913388D03*
X165696610Y-155063388D03*
X165696610Y-151713388D03*
X166146610Y-154263388D03*
X166146610Y-150913388D03*
X167046610Y-154263388D03*
X167046610Y-150913388D03*
X167496610Y-155063388D03*
X167496610Y-151713388D03*
X167946610Y-154263388D03*
X167946610Y-150913388D03*
X168846610Y-154263388D03*
X168846610Y-150913388D03*
X169296610Y-155063388D03*
X169296610Y-151713388D03*
D15*
X161096610Y-154063388D03*
D16*
X161396610Y-159563388D03*
X171796610Y-159563388D03*
D15*
X172096610Y-154063388D03*
%TD*%
D12*
%TO.C,H4*%
X42500000Y-157559908D03*
%TD*%
%TO.C,H7*%
X85519448Y-52219299D03*
%TD*%
D13*
%TO.C,J9*%
X201600000Y-150913388D03*
X211100000Y-150913388D03*
D14*
X203650000Y-155063388D03*
X203650000Y-151713388D03*
X204100000Y-154263388D03*
X204100000Y-150913388D03*
X205000000Y-154263388D03*
X205000000Y-150913388D03*
X205450000Y-155063388D03*
X205450000Y-151713388D03*
X205900000Y-154263388D03*
X205900000Y-150913388D03*
X206800000Y-154263388D03*
X206800000Y-150913388D03*
X207250000Y-155063388D03*
X207250000Y-151713388D03*
X207700000Y-154263388D03*
X207700000Y-150913388D03*
X208600000Y-154263388D03*
X208600000Y-150913388D03*
X209050000Y-155063388D03*
X209050000Y-151713388D03*
D15*
X200850000Y-154063388D03*
D16*
X201150000Y-159563388D03*
X211550000Y-159563388D03*
D15*
X211850000Y-154063388D03*
%TD*%
D12*
%TO.C,H5*%
X250000000Y-29000000D03*
%TD*%
D29*
%TO.C,R1*%
X77320000Y-147085000D03*
X77320000Y-147900000D03*
%TD*%
D17*
%TO.C,J8*%
X132469110Y-26488750D03*
X124069110Y-26488750D03*
D18*
X124069110Y-33788750D03*
D19*
X128269110Y-33788750D03*
X132469110Y-33788750D03*
X124069110Y-39288750D03*
X128269110Y-39288750D03*
X132469110Y-39288750D03*
%TD*%
D17*
%TO.C,J3*%
X59866610Y-26418750D03*
X51466610Y-26418750D03*
D18*
X51466610Y-33718750D03*
D19*
X55666610Y-33718750D03*
X59866610Y-33718750D03*
X51466610Y-39218750D03*
X55666610Y-39218750D03*
X59866610Y-39218750D03*
%TD*%
G36*
X223199649Y-44923796D02*
G01*
X223245404Y-44976600D01*
X223256610Y-45028111D01*
X223256610Y-56780111D01*
X223236925Y-56847150D01*
X223184121Y-56892905D01*
X223132610Y-56904111D01*
X95060610Y-56904111D01*
X94993571Y-56884426D01*
X94947816Y-56831622D01*
X94936610Y-56780111D01*
X94936610Y-45028111D01*
X94956295Y-44961072D01*
X95009099Y-44915317D01*
X95060610Y-44904111D01*
X223132610Y-44904111D01*
X223199649Y-44923796D01*
G37*
G36*
X162499649Y-93588984D02*
G01*
X162545404Y-93641788D01*
X162556610Y-93693299D01*
X162556610Y-95345299D01*
X162536925Y-95412338D01*
X162484121Y-95458093D01*
X162432610Y-95469299D01*
X62293448Y-95469299D01*
X62226409Y-95449614D01*
X62180654Y-95396810D01*
X62169448Y-95345299D01*
X62169448Y-93693299D01*
X62189133Y-93626260D01*
X62241937Y-93580505D01*
X62293448Y-93569299D01*
X162432610Y-93569299D01*
X162499649Y-93588984D01*
G37*
M02*
